<svg xmlns="http://www.w3.org/2000/svg" width="24" height="24" viewBox="0 0 24 24">
  <title>arrow-right</title>
  <polygon points="3.02 11 18.17 11 10.68 3.52 12.1 2.1 20.58 10.59 20.58 10.59 22 12 20.58 13.41 12.1 21.9 10.68 20.48 18.17 13 3.02 13 3.02 11" fill="#231f20"/>
</svg>