<svg xmlns="http://www.w3.org/2000/svg" width="24" height="24" viewBox="0 0 24 24">
  <title>calendar</title>
  <g>
    <path d="M20,4H18V2H16V4H8V2H6V4H4A1,1,0,0,0,3,5V21a1,1,0,0,0,1,1H20a1,1,0,0,0,1-1V5A1,1,0,0,0,20,4ZM5,20V10H19V20Z"/>
    <rect x="7" y="12" width="2" height="2"/>
    <rect x="11" y="12" width="2" height="2"/>
    <rect x="15" y="12" width="2" height="2"/>
    <rect x="15" y="16" width="2" height="2"/>
    <rect x="11" y="16" width="2" height="2"/>
    <rect x="7" y="16" width="2" height="2"/>
  </g>
</svg>