<svg xmlns="http://www.w3.org/2000/svg" width="24" height="24" viewBox="0 0 24 24">
  <title>Artboard 1</title>
  <g>
    <path d="M19,19H5V5h6.92l-2-2H4A1,1,0,0,0,3,4V20a1,1,0,0,0,1,1H20a1,1,0,0,0,1-1V14l-2-2Z" fill-rule="evenodd"/>
    <polygon points="13.98 3 16.84 5.87 9.36 13.36 10.77 14.77 18.26 7.28 21 10.02 21 3 13.98 3" fill-rule="evenodd"/>
  </g>
</svg>
