<svg xmlns="http://www.w3.org/2000/svg" width="24.04" height="24" viewBox="0 0 24.04 24">
  <title>Artboard 1</title>
  <path d="M16,4a5,5,0,0,0-4,2A5,5,0,0,0,3,9,4.52,4.52,0,0,0,4,11.9C4.61,12.66,12,20,12,20s7.32-7.14,8-8.11A4.54,4.54,0,0,0,21,9,5,5,0,0,0,16,4Zm2.42,6.71c-.41.53-3.36,3.5-6.4,6.49C8.91,14.09,5.85,11,5.49,10.61A2.59,2.59,0,0,1,5,9,3,3,0,0,1,8,6a3.5,3.5,0,0,1,2.4,1.23L12,9l1.61-1.77A3.51,3.51,0,0,1,16,6a3,3,0,0,1,3,3A2.54,2.54,0,0,1,18.43,10.71Z"/>
</svg>
