<svg xmlns="http://www.w3.org/2000/svg" width="24" height="24" viewBox="0 0 24 24">
  <title>Artboard 1</title>
  <polygon points="20.92 12 11.94 3.02 2.96 12 5 12 5 21 10 21 10 14 14 14 14 21 19 21 19 12 20.92 12"/>
</svg>
