<svg xmlns="http://www.w3.org/2000/svg" width="24" height="24" viewBox="0 0 24 24">
  <title>Artboard 1</title>
  <polygon points="22.05 12 19 8.95 19 11 13 11 13 5 15.05 5 12 1.95 8.95 5 11 5 11 11 5 11 5 8.95 1.95 12 5 15.05 5 13 11 13 11 19 8.95 19 12 22.05 15.05 19 13 19 13 13 19 13 19 15.05 22.05 12" fill-rule="evenodd"/>
</svg>
