<svg xmlns="http://www.w3.org/2000/svg" width="24" height="24" viewBox="0 0 24 24">
  <title>Artboard 1</title>
  <path d="M8.95,6.56l6.92,6.34L13,13.57l2.28,5.1-1.65.71-2.28-5.22L9,16,8.95,6.56M6.92,2,7,20l3.51-2.73,2,4.69,5.34-2.31L15.81,15,20,14,6.92,2Z"/>
</svg>
