<svg xmlns="http://www.w3.org/2000/svg" width="24" height="24" viewBox="0 0 24 24">
  <title>Artboard 1</title>
  <g>
    <path d="M21,8H3A1,1,0,0,0,2,9v8a1,1,0,0,0,1,1H5v4H19V18h2a1,1,0,0,0,1-1V9A1,1,0,0,0,21,8ZM6,12H4V10H6Zm11,6v2H7V16H17Z"/>
    <rect x="5.96" y="2.02" width="12.04" height="4.98"/>
  </g>
</svg>
